{
    "key": "group_5da61d6233dcd",
    "title": "Site Options",
    "fields": [
        {
            "key": "field_5dada877c1d9c",
            "label": "Social",
            "name": "",
            "type": "tab",
            "instructions": "",
            "required": 0,
            "conditional_logic": 0,
            "wrapper": {
                "width": "",
                "class": "",
                "id": ""
            },
            "placement": "top",
            "endpoint": 0
        },
        {
            "key": "field_5dada88ac1d9d",
            "label": "Social Icons",
            "name": "social_icons",
            "type": "repeater",
            "instructions": "Set the social icons and links. All links will open in a new tab",
            "required": 0,
            "conditional_logic": 0,
            "wrapper": {
                "width": "",
                "class": "",
                "id": ""
            },
            "collapsed": "",
            "min": 0,
            "max": 0,
            "layout": "table",
            "button_label": "Add Icon",
            "sub_fields": [
                {
                    "key": "field_5dada8acc1d9e",
                    "label": "Icon",
                    "name": "icon",
                    "type": "radio",
                    "instructions": "Select an icon identifier or add a theme-specific custom identifier",
                    "required": 1,
                    "conditional_logic": 0,
                    "wrapper": {
                        "width": "60",
                        "class": "",
                        "id": ""
                    },
                    "choices": {
                        "facebook": "Facebook",
                        "twitter": "Twitter",
                        "instagram": "Instagram",
                        "youtube": "YouTube"
                    },
                    "allow_null": 0,
                    "other_choice": 1,
                    "save_other_choice": 0,
                    "default_value": "",
                    "layout": "horizontal",
                    "return_format": "value"
                },
                {
                    "key": "field_5dada9c6c1d9f",
                    "label": "Link",
                    "name": "link",
                    "type": "link",
                    "instructions": "Set the social url and descriptive text.",
                    "required": 1,
                    "conditional_logic": 0,
                    "wrapper": {
                        "width": "40",
                        "class": "",
                        "id": ""
                    },
                    "return_format": "array"
                }
            ]
        }
    ],
    "location": [
        [
            {
                "param": "options_page",
                "operator": "==",
                "value": "acf-global"
            }
        ]
    ],
    "menu_order": 0,
    "position": "normal",
    "style": "default",
    "label_placement": "top",
    "instruction_placement": "label",
    "hide_on_screen": "",
    "active": 1,
    "description": "Global Options Page Attributes",
    "modified": 1588912282
}